Version:5.0
Snaper aluminiu ERRETTI|toate|toate|toate|0|0|275|1000|275|499|0|1|-1
ERT506.T|1|
Cremon rotund XS600|toate|toate|toate|0|0|0|0|500|2300|0|1|-1
XS600|1|
Cremon GLOBO|toate|toate|toate|0|0|0|0|500|2300|0|1|-1
ZC1041|1|
Cremon PERLA|toate|toate|toate|0|0|0|0|500|2300|0|1|-1
ZC1102|1|
Cremon PERLA detasabil|toate|toate|toate|0|0|0|0|500|2300|0|1|-1
ZC1140|1|
Cremon ROSITA|toate|toate|toate|0|0|0|0|500|2300|0|1|-1
ZC1115|1|
Cremon LUNA|toate|toate|toate|0|0|0|0|500|2300|0|1|-1
ZC1128|1|
Cremon MAXIMA|toate|toate|toate|0|0|0|0|500|2300|0|1|-1
ZC1142|1|
Cremon LUNA cu cheie|toate|toate|toate|0|0|0|0|500|2300|0|1|-1
ZC1132|1|
Cremon GLOBO  - cheie|toate|toate|toate|0|0|0|0|500|2300|0|1|-1
ZC1029|1|
Cremon Cinderella|toate|toate|toate|0|0|0|0|500|2300|0|1|-1
ZC1155|1|
Cremon GLOBO DD|toate|toate|toate|0|0|0|0|0|0|0|2|-1
ZC1033|1|
Cremon PERLA DD|toate|toate|toate|0|0|0|0|0|0|0|2|-1
ZC1108|1|
Cremon LUNA DD|toate|toate|toate|0|0|0|0|0|0|0|2|-1
ZC1130|1|
Cremon MAXIMA DD|toate|toate|toate|0|0|0|0|0|0|0|2|-1
ZC1144|1|
Cremon GLOBO DD - cheie|toate|toate|toate|0|0|0|0|0|0|0|2|-1
ZC1033|1|
Cremon rotund XS600 - batanta jos|toate|toate|toate|0|0|500|2001|0|0|0|4|-1
XS600|1|
Cremon rotund XS600 - batanta sus|toate|toate|toate|0|0|500|2001|0|0|0|3|-1
XS600|1|
Snaper  - batanta jos < 500|toate|toate|toate|0|0|275|499|0|0|0|4|-1
ERT506.T|1|
Snaper - batanta sus < 500|toate|toate|toate|0|0|275|499|0|0|0|3|-1
ERT506.T|1|
Set Zavor inversor - SS100AL|toate|toate|toate|0|0|0|0|0|0|0|0|-1
SS100AL|1|
Cremon usa balcon XS600|toate|toate|toate|0|0|0|0|500|2300|3|1|-1
XS600|1|
Set Zavor inversor -usa|toate|toate|toate|0|0|500|1200|1500|2300|1|0|-1
ZAVOR|1|
Maner usa X603|toate|toate|toate|0|0|0|0|0|0|1|1|-1
X603|1|
Maner usa X103|toate|toate|toate|0|0|0|0|0|0|1|1|-1
X103|1|
Maner usa GLOBO|toate|toate|toate|0|0|0|0|0|0|1|1|-1
ZC5026|1|
Maner usa MAXIMA|toate|toate|toate|0|0|0|0|0|0|1|1|-1
ZC5051|1|
Maner Ingropat Glisanta|toate|toate|alb/maro|0|0|0|0|0|0|0|5|-1
KA849|1|
