Version:5.0
Bagheta 24mm GT|24mm|toate|alb|0|0|0|0|0|0
BAGT24|0|
Bagheta laminat 24mm GT|24mm|toate|toate|0|0|0|0|0|0
6307SK24|0|
Bagheta 32mm GT|32mm|toate|alb|0|0|0|0|0|0
BGA32|0|
Bagheta GS - 4mm|4mm|toate|alb|0|0|0|0|0|0
6306S|0|
Bagheta laminat GS - 4mm|4mm|toate|toate|0|0|0|0|0|0
6306SK|0|
Bagheta GS - 6mm|6mm|toate|alb|0|0|0|0|0|0
6306S|0|
Bagheta laminat GS - 6mm|6mm|toate|toate|0|0|0|0|0|0
6306SK|0|
