Version:5.2.6
Gol|toate|toate|toate|0|0|0|0|0|0|0

Float+Float 24mm|24mm|toate|toate|0|0|0|0|0|0|2
FL+FL24|0|
Float+Krizet 24mm|24mm|toate|toate|0|0|0|0|0|0|2
FL+KR24|0|
Float+Colorat 24mm|24mm|toate|toate|0|0|0|0|0|0|2
FL+CL24|0|
Float+Decorativ alb 24mm|24mm|toate|toate|0|0|0|0|0|0|2
FL+DA24|0|
Float+Krizet fumuriu 24mm|24mm|toate|toate|0|0|0|0|0|0|2
FL+KF24|0|
Float+Reflexiv 24mm|24mm|toate|toate|0|0|0|0|0|0|2
FL+RE24|0|
Float+Sablat chimic 24mm|24mm|toate|toate|0|0|0|0|0|0|2
FL+SC24|0|
Krizet+Krizet 24mm|24mm|toate|toate|0|0|0|0|0|0|2
KR+KR24|0|
Fumuriu+Fumuriu 24mm|24mm|toate|toate|0|0|0|0|0|0|2
FU+FU24|0|
LowE+Float 24mm|24mm|toate|toate|0|0|0|0|0|0|2
FL+LE24|0|
LowE+Colorat 24mm|24mm|toate|toate|0|0|0|0|0|0|2
LE+CL24|0|
LowE+Decorativ alb 24mm|24mm|toate|toate|0|0|0|0|0|0|2
LE+DA24|0|
LowE+Decorativ bronze 24mm|24mm|toate|toate|0|0|0|0|0|0|2
LE+DB20|0|
LowE+Krizet 24mm|24mm|toate|toate|0|0|0|0|0|0|2
LE+KR24|0|
Low E+Reflexiv 24mm|24mm|toate|toate|0|0|0|0|0|0|2
LE+RE24|0|
LowE+Sablat 24mm|24mm|toate|toate|0|0|0|0|0|0|2
LE+SB24|0|
LowE+LowE 24mm|24mm|toate|toate|0|0|0|0|0|0|2
LE+LE24|0|
Reflexiv+Krizet 24mm|24mm|toate|toate|0|0|0|0|0|0|2
RE+KR24|0|
Reflexiv+Reflexiv 24mm|24mm|toate|toate|0|0|0|0|0|0|2
RE+RE24|0|
Panel alb 24mm|24mm|toate|toate|0|0|0|0|0|0|4
PNL24-1|0|
Panel laminat 24mm|24mm|toate|toate|0|0|0|0|0|0|4
PNL24L|0|
3Float+LowE+LowE 32mm|32mm|toate|toate|0|0|0|0|0|0|3
FL+LE+LE|0|
