Version:5.2.6
Toc 5 cam|5cam|toate|alb|0|0|0|0|0|0|0
75030|0|arm-6300m|0|
Toc 5 cam - colorat|5cam|toate|colorat|0|0|0|0|0|0|0
75030c|0|arm-6300m|0|
Z fereastra - 5 cam|5cam|toate|alb|0|0|0|0|0|0|2
75040|0|arm-6300m|0|
Z fereastra - 5 cam -colorat|5cam|toate|colorat|0|0|0|0|0|0|2
arm-6300m|0|75040c|0|
Teu - 5 cam|5cam|toate|alb|0|0|0|0|0|0|1
118240|2|75050|0|arm-6300m|0|
Teu - 5 cam -colorat|5cam|toate|colorat|0|0|0|0|0|0|1
118240|2|arm-6300m|0|75050c|0|
Inversor 5 cam|5cam|toate|alb|0|0|0|0|0|0|4
vivacpcinv|1|arm-6300m|0|74080|0|
Inversor 5 cam -colorat|5cam|toate|colorat|0|0|0|0|0|0|4
74080c|0|arm-6300m|0|vivacpcinv|1|
Z usa -Alb|toate|toate|alb|0|0|0|0|0|0|3
63060|0|arm-6300u|0|
Z usa  -colorat|toate|toate|colorat|0|0|0|0|0|0|3
63060c|0|arm-6300u|0|
Z usa exterior - Alb|toate|toate|alb|0|0|0|0|0|0|3
arm-6300u|0|63070|0|
Z usa exterior -colorat|toate|toate|colorat|0|0|0|0|0|0|3
63070c|0|arm-6300u|0|
Teava colt -5 cam|5cam|toate|alb|0|0|0|0|0|0|8
arm5|0|63100|0|63100|0|63110|0|
Teava colt 5cam  - colorat|5cam|toate|alb|0|0|0|0|0|0|8
arm5|0|63110c|0|63100c|0|63100c|0|
Toc mic - 3 cam|3cam|toate|alb|0|0|0|0|0|0|0
63020|0|arm-6300|0|
Toc mare  - 3 cam|3cam|toate|alb|0|0|0|0|0|0|0
63030|0|arm-6300m|0|
Z fer - 3 cam|3cam|toate|alb|0|0|0|0|0|0|2
63040|0|arm-6300m|0|
Teu - 3 cam|3cam|toate|alb|0|0|0|0|0|0|1
118240|2|63050|0|arm-6300m|0|
Inversor 3 cam|3cam|toate|alb|0|0|0|0|0|0|4
arm-6300|0|vivacpcinv|1|63080|0|
Toc - 4 cam|4cam|toate|alb|0|0|0|0|0|0|0
64030|0|arm-6300m|0|
Toc - 4 cam colorat|4cam|toate|colorat|0|0|0|0|0|0|0
GRN1|0|arm-6300m|0|64030c|0|
Z fer - 4 cam|4cam|toate|alb|0|0|0|0|0|0|2
64040|0|arm-6300m|0|
Z fer - 4 cam colorat|4cam|toate|colorat|0|0|0|0|0|0|2
arm-6300m|0|64040c|0|
Teu - 4 cam|4cam|toate|alb|0|0|0|0|0|0|1
118240|2|64050|0|arm-6300m|0|
Teu - 4 cam - colorat|4cam|toate|colorat|0|0|0|0|0|0|1
64050c|0|arm-6300m|0|118240|2|
Inversor 4 cam|4cam|toate|alb|0|0|0|0|0|0|4
63080|0|vivacpcinv|1|arm-6300|0|
Inversor 4cam colorat|4cam|toate|colorat|0|0|0|0|0|0|4
arm-6300|0|63080c|0|vivacpcinv|1|
H legatura|toate|toate|toate|0|0|0|0|0|0|8
63120|0|
Prag aluminiu -usa|toate|toate|toate|0|0|0|0|0|0|10

Fara prag|toate|toate|toate|0|0|0|0|0|0|10

