Version:5.0
Fara plasa|toate|toate|toate|0|0|0|0|0|0|0

Plasa|toate|toate|toate|0|0|300|1200|300|2500|0
profins|0|G-mnrprf|1|G-inch|1|G-blmins|2|G-cltr|4|ftl|0|pls_insect|0|10005|14|
Plasa laminat|toate|toate|laminat|0|0|300|1200|300|2500|0
G-mnrprf|1|G-inch|1|G-blmins|2|G-cltr|4|ftl|0|pls_insect|0|10005|14|
