Version:5.0
Gol|toate|toate|toate|0|0|0|0|0|0|0

Float + Low-e|24mm|toate|toate|0|0|0|0|0|0|2
FL+LE24|0|
Float + Float|24mm|toate|toate|0|0|0|0|0|0|2
FL+FL24|0|
Low + delta 2|24mm|toate|toate|0|0|0|0|0|0|2
7f|0|
Float + Krizet|24mm|toate|toate|0|0|0|0|0|0|2
FL+KR24|0|
Low + maslin |24mm|toate|toate|0|0|0|0|0|0|2
4f|0|
Low-e + Krizet|24mm|toate|toate|0|0|0|0|0|0|2
LE+DA24|0|
Low + delta bronz|24mm|toate|toate|0|0|0|0|0|0|2
6f|0|
Low + reflexiv bombat|24mm|toate|toate|0|0|0|0|0|0|2
5f|0|
Float + Crossfield|24mm|toate|toate|0|0|0|0|0|0|2
FL+CL24|0|
Float + Sablat|24mm|toate|toate|0|0|0|0|0|0|2
FL+DA24|0|
Low-e + Crossfield|24mm|toate|toate|0|0|0|0|0|0|2
LE+CL24|0|
Low-e + Sablat|24mm|toate|toate|0|0|0|0|0|0|2
FL+DB24|0|
Float + Fumuriu|24mm|toate|toate|0|0|0|0|0|0|2
FL+FL242|0|
Low-e + Fumuriu|24mm|toate|toate|0|0|0|0|0|0|2
FL+FL242|0|
Float + Reflexiv|24mm|toate|toate|0|0|0|0|0|0|2
FL+KF24|0|
Low-e + Reflexiv|24mm|toate|toate|0|0|0|0|0|0|2
FL+KF24|0|
Oglinda + Krizet|24mm|toate|toate|0|0|0|0|0|0|2
FL+FL2422|0|
Oglinda + Oglinda|24mm|toate|toate|0|0|0|0|0|0|2
FL+FL2423|0|
Triplex Clar-Clar-Clar|24mm|toate|toate|0|0|0|0|0|0|2
FL+FL+FL|0|
Triplex Clar-Clar-LowE|24mm|toate|toate|0|0|0|0|0|0|2
FL+FL+LE|0|
Triplex Reflexiv-Clar-LowE|toate|toate|toate|0|0|0|0|0|0|3
RE+FL+LE|0|
GS clar|4mm|toate|toate|0|0|0|0|0|0|1
GS4MM|0|
GS krizet|4mm|toate|toate|0|0|0|0|0|0|1
GO4MM|0|
GS crossfield|4mm|toate|toate|0|0|0|0|0|0|1
GS4MM2|0|
GS sablat|4mm|toate|toate|0|0|0|0|0|0|1
GS4MMs|0|
GS colorat|4mm|toate|toate|0|0|0|0|0|0|1
GO4MMc|0|
Panel alb|24mm|toate|toate|0|0|0|0|0|0|4
P24mm|0|
Panel laminat|24mm|toate|toate|0|0|0|0|0|0|4
PNL24L|0|
