2	811333917
Empty	
beliebig	beliebig	0	0	0	-1	beliebig	0
0	0	0	0

2	811438684
Glass 6mm	
6mm	beliebig	1	0	0	-1	beliebig	0
0	0	0	0
GS6MM	0	

2	812571483
Float+Low-E 20mm	
20mm	beliebig	2	0	0	-1	beliebig	0
0	0	0	0
FL+LE20	0	

2	812588353
Float+Low-E 24mm	
24mm	beliebig	3	0	0	-1	beliebig	0
0	0	0	0
FL+LE24	0	

2	811696340
Panel 20mm	
20mm	beliebig	4	0	0	-1	beliebig	0
0	0	0	0
PNL20L	0	

2	811727713
Panel 24mm	
24mm	beliebig	4	0	0	-1	beliebig	0
0	0	0	0
PNL24L	0	

