Version:5.2.4
Toc  (Alb)|toate|toate|alb|0|0|0|0|0|0|0
ro01|0|rogarn1|0|
Toc (colorat)|toate|toate|colorat|0|0|0|0|0|0|0
ro01c|0|rogarn1|0|
Teu (Alb)|toate|toate|alb|0|0|0|0|0|0|1
ro04|0|G-CapTeuPL4|2|A25X25X25|0|rogarn1|0|rogarn2|0|
Teu (colorat)|toate|toate|colorat|0|0|0|0|0|0|1
ro04c|0|G-CapTeuPL4|2|A25X25X25|0|rogarn2|0|rogarn1|0|
Zet fer  (Alb)|toate|toate|alb|0|0|0|0|0|0|2
ro03|0|rogarn1|0|rogarn2|0|
Zet usa balcon  (Alb)|toate|toate|alb|0|0|0|0|0|0|2
ro031|0|rogarn1|0|A25X30X25|0|rogarn2|0|
Zet fer (colorat)|toate|toate|colorat|0|0|0|0|0|0|2
ro03c|0|rogarn1|0|rogarn2|0|
Zet usa balcon  (colorat)|toate|toate|colorat|0|0|0|0|0|0|2
rogarn1|0|ro03c1|0|A25X30X25|0|rogarn2|0|
Zet usa (Alb)|toate|toate|alb|0|0|0|0|0|0|3
ro06|0|rogarn1|0|A50X30X50|0|rogarn2|0|
Zet usa (colorat)|toate|toate|colorat|0|0|0|0|0|0|3
ro06c|0|rogarn1|0|A50X30X50|0|rogarn2|0|
Zet usa ext  (Alb)|toate|toate|alb|0|0|0|0|0|0|3
ro06|0|rogarn1|0|A50X30X50|0|rogarn2|0|
Zet usa ext  (colorat)|toate|toate|colorat|0|0|0|0|0|0|3
ro06c|0|rogarn1|0|A50X30X50|0|rogarn2|0|
Inversor (alb)|toate|toate|alb|0|0|0|0|0|0|4
ro05|0|G-cpcinvultra|1|A25X25X25|0|
Inversor (colorat)|toate|toate|colorat|0|0|0|0|0|0|4
ro05c|0|G-cpcinvultram|1|A25X25X25|0|
H legatura|toate|toate|alb|0|0|0|0|0|0|8
ro09|0|
H otel|toate|toate|alb|0|0|0|0|0|0|8
a1|0|A30X25X30|0|
H legatura colorat|toate|toate|colorat|0|0|0|0|0|0|8
ro09c|0|
H otel colorat|toate|toate|colorat|0|0|0|0|0|0|8
A30X25X30|0|a2|0|
Teava colt|toate|toate|alb|0|0|0|0|0|0|8
A50|0|ro07|0|ro08|0|ro08|0|
Patrat colt|toate|toate|alb|0|0|0|0|0|0|8
ro08|0|a5|0|A50X50|0|ro08|0|
Teava colt colorat|toate|toate|colorat|0|0|0|0|0|0|8
A50|0|ro07c|0|ro08c|0|ro08c|0|
Patrat colt colorat|toate|toate|colorat|0|0|0|0|0|0|8
ro08c|0|A50X50|0|a6|0|ro08c|0|
Fara prag|toate|toate|toate|0|0|0|0|0|0|10

Prag aluminiu|toate|toate|toate|0|0|0|0|0|0|10
PRG|0|
Glaf interior -alb|toate|toate|alb|0|0|0|0|0|0|9

Glaf interior -colorat|toate|toate|toate|0|0|0|0|0|0|9

Glaf exterior - alb|toate|toate|alb|0|0|0|0|0|0|9

Glaf exterior - colorat|toate|toate|toate|0|0|0|0|0|0|9

