Version:5.2.4
Toc 3 cam ULTRA alb|Ultra|toate|alb|0|0|0|0|0|0|0
PL301330U|0|ARM1|0|
Toc 3 cam ULTRA laminat|Ultra|toate|laminat|0|0|0|0|0|0|0
ARM1|0|PL301330UL|0|
Zet 3 cam ULTRA alb|Ultra|toate|alb|0|40|0|0|0|0|2
PL301160U|0|ARM1|0|
Zet 3 cam ULTRA laminat|Ultra|toate|laminat|0|40|0|0|0|0|2
PL301160UL|0|ARM1|0|
Teu 3 cam ULTRA alb|Ultra|toate|alb|0|10|0|0|0|0|1
PL301170U|0|G-CapTeuPL3|2|ARM2|0|
Teu 3 cam ULTRA laminat|Ultra|toate|laminat|0|10|0|0|0|0|1
PL301170UL|0|G-CapTeuPL3|2|ARM2|0|
Z usa 3 cam ULTRA alb|Ultra|toate|alb|0|90|0|0|0|0|3
ARM4|0|PL40112P|0|
Z usa 3 cam ULTRA laminat|Ultra|toate|laminat|0|90|0|0|0|0|3
ARM4|0|PL40112PLam|0|
Z usa 3 cam exterior  ULTRA alb|Ultra|toate|alb|0|90|0|0|0|0|3
ARM4|0|PL40113|0|
Z usa 3 cam exterior  ULTRA laminat|Ultra|toate|laminat|0|90|0|0|0|0|3
ARM4|0|PL40113L|0|
Inversor 3 cam alb|Ultra|toate|alb|0|0|0|0|0|0|4
PL301080CL|0|G-cpcinvultra|1|ARM1|0|
Inversor 3 cam laminat|Ultra|toate|laminat|0|0|0|0|0|0|4
ARM1|0|G-cpcinvultram|1|PL301080CLL|0|
Toc 4 cam  Classic alb|Classic|toate|alb|0|0|0|0|0|0|0
ARM1|0|PL40101CL|0|
Patrat colt alb Ultra/Classic|Ultra|toate|alb|0|0|0|0|0|0|8
PL201490|0|ARM5|0|
Patrat colt alb Premium|Premium|toate|alb|0|0|0|0|0|0|8
PL2014905cam|0|ARM5|0|
Patrat colt laminat Ultra/Classic|Ultra|toate|laminat|0|0|0|0|0|0|8
ARM5|0|PL201490lam|0|
Patrat colt laminat Premium|Premium|toate|laminat|0|0|0|0|0|0|8
ARM5|0|PL201490lam5|0|
Teava colt -alb Ultra/Classic|Ultra|toate|alb|0|0|0|0|0|0|8
PL001100|0|PL001110|0|PL001110|0|ARM6|0|
Teava colt -alb Premium|Premium|toate|alb|0|0|0|0|0|0|8
ARM6|0|PL0011005cam|0|PL0011105cam|0|PL0011105cam|0|
Teava colt -laminat Ultra/Classic|Ultra|toate|laminat|0|0|0|0|0|0|8
ARM6|0|PL001100lam|0|PL001110lam|0|PL001110lam|0|
Teava colt -laminat Premium|Premium|toate|laminat|0|0|0|0|0|0|8
ARM6|0|PL0011005caml|0|PL0011105camlm|0|PL0011105camlm|0|
Toc 4 cam  Classic laminat|Classic|toate|laminat|0|0|0|0|0|0|0
ARM1|0|PL40101CLL|0|
Zet 4 cam Classic alb|Classic|toate|alb|0|40|0|0|0|0|2
PL40102C|0|ARM1|0|
Zet 4 cam Classic laminat|Classic|toate|laminat|0|40|0|0|0|0|2
PL40102CL|0|ARM1|0|
Teu 4 cam Classic alb|Classic|toate|alb|0|10|0|0|0|0|1
PL40107CL|0|G-CapTeuPL4|2|ARM3|0|
Teu 4 cam Classic laminat|Classic|toate|laminat|0|10|0|0|0|0|1
PL40107CLL|0|G-CapTeuPL4|2|ARM3|0|
Z usa 4 cam Classic alb|Classic|toate|alb|0|90|0|0|0|0|3
ARM4|0|PL40112P|0|
Z usa 4 cam Classic laminat|Classic|toate|laminat|0|90|0|0|0|0|3
ARM4|0|PL40112PLam|0|
Z usa 4 cam exterior  Classic alb|Classic|toate|alb|0|90|0|0|0|0|3
ARM4|0|PL40113C|0|
Z usa 4 cam exterior  Classic laminat|Classic|toate|laminat|0|90|0|0|0|0|3
ARM4|0|PL40113CL|0|
Inversor 4 cam alb|Classic|toate|alb|0|10|0|0|0|0|4
PL301080CL|0|G-cpcinvultra|1|ARM1|0|
Inversor 4 cam laminat|Classic|toate|laminat|0|10|0|0|0|0|4
ARM1|0|G-cpcinvultram|1|PL301080CLL|0|
Toc 5 cam  Premium  alb|Premium|toate|alb|0|0|0|0|0|0|0
ARM1|0|PL501301P|0|
Toc 5 cam  Premium  laminat|Premium|toate|laminat|0|0|0|0|0|0|0
ARM1|0|PL501301PL|0|
Zet 5 cam Premium alb|Premium|toate|alb|0|40|0|0|0|0|2
ARM1|0|PL601302P|0|
Zet 5 cam Premium laminat|Premium|toate|laminat|0|40|0|0|0|0|2
ARM1|0|PL601302PL|0|
Teu 5 cam Premium alb|Premium|toate|alb|0|10|0|0|0|0|1
PL501307P|0|G-CapTeuPL5|2|ARM3|0|
Teu 5 cam Premium laminat|Premium|toate|laminat|0|10|0|0|0|0|1
G-CapTeuPL5|2|PL501307PL|0|ARM3|0|
Z usa 5 cam Premium alb|Premium|toate|alb|0|90|0|0|0|0|3
PL401386P|0|ARM4|0|
Z usa 5 cam Premium laminat|Premium|toate|laminat|0|90|0|0|0|0|3
ARM4|0|PL401386PL|0|
Z usa 5 cam exterior  Premium  alb|Premium|toate|alb|0|90|0|0|0|0|3
ARM4|0|PL401389PA|0|
Z usa 5 cam exterior  Premium  laminat|Premium|toate|laminat|0|90|0|0|0|0|3
ARM4|0|PL401389PAL|0|
Inversor 5 cam alb|Premium|toate|alb|0|0|0|0|0|0|4
PL301308P|0|G-ACC-35|1|ARM1|0|
Inversor 5 cam laminat|Premium|toate|laminat|0|0|0|0|0|0|4
PL301308PL|0|ARM1|0|G-ACC-36|1|
Prag usa|toate|toate|toate|0|0|0|0|0|0|10
prgal|0|G-ACC-32|1|
Glaf 20mm alb|toate|toate|alb|0|0|0|0|0|0|9
Glafpvc20|0|G-capacg|1|
Glaf 20mm laminat|toate|toate|laminat|0|0|0|0|0|0|9
Glafpvcmah20|0|G-capacgl|1|
Glaf 25mm alb|toate|toate|alb|0|0|0|0|0|0|9
Glafpvc25|0|G-capacg2|1|
Glaf 25mm laminat|toate|toate|laminat|0|0|0|0|0|0|9
Glafpvcmah25|0|G-capacgl22|1|
